…
The dataset has 1384617 rows and 15 columns. The 15 variables include
different kinds of order, product and user id information, aisles’ id
and their information and product names extra.

``` r
instacart %>%
  group_by(aisle) %>%
  count() %>%
  arrange(n)
```

    ## # A tibble: 134 × 2
    ## # Groups:   aisle [134]
    ##    aisle                          n
    ##    <chr>                      <int>
    ##  1 beauty                       287
    ##  2 frozen juice                 294
    ##  3 baby accessories             306
    ##  4 baby bath body care          328
    ##  5 kitchen supplies             448
    ##  6 specialty wines champagnes   461
    ##  7 ice cream toppings           504
    ##  8 shave needs                  532
    ##  9 skin care                    534
    ## 10 first aid                    539
    ## # … with 124 more rows
…
